{
  "Temperature": "72.14",
  "DHT22Status": "New Reading...",
  "Time": "12/09/2018 23:29",
  "SessionId": "0df9dfd3-ecf5-4b73-8857-28fb549f4f6c",
  "Humidity": "36.2",
  "DeviceName": "RaspberryDemo"
}
